{"componentChunkName":"component---src-templates-index-tsx","path":"/page/6","result":{"data":{"allMarkdownRemark":{"pageInfo":{"currentPage":6,"hasNextPage":false,"hasPreviousPage":true,"itemCount":0,"pageCount":4,"totalCount":29,"perPage":9},"edges":[]}},"pageContext":{"limit":9,"skip":45}},"staticQueryHashes":["1535296192"]}