{"componentChunkName":"component---src-templates-index-tsx","path":"/page/19","result":{"data":{"allMarkdownRemark":{"pageInfo":{"currentPage":19,"hasNextPage":false,"hasPreviousPage":true,"itemCount":0,"pageCount":4,"totalCount":29,"perPage":9},"edges":[]}},"pageContext":{"limit":9,"skip":162}},"staticQueryHashes":["1535296192"]}