{"componentChunkName":"component---src-templates-index-tsx","path":"/page/13","result":{"data":{"allMarkdownRemark":{"pageInfo":{"currentPage":13,"hasNextPage":false,"hasPreviousPage":true,"itemCount":0,"pageCount":4,"totalCount":30,"perPage":9},"edges":[]}},"pageContext":{"limit":9,"skip":108}},"staticQueryHashes":["1535296192"]}