{"componentChunkName":"component---src-templates-index-tsx","path":"/page/14","result":{"data":{"allMarkdownRemark":{"pageInfo":{"currentPage":14,"hasNextPage":false,"hasPreviousPage":true,"itemCount":0,"pageCount":4,"totalCount":28,"perPage":9},"edges":[]}},"pageContext":{"limit":9,"skip":117}},"staticQueryHashes":["1535296192"]}