{"componentChunkName":"component---src-templates-index-tsx","path":"/page/2","result":{"data":{"allMarkdownRemark":{"pageInfo":{"currentPage":2,"hasNextPage":true,"hasPreviousPage":true,"itemCount":9,"pageCount":4,"totalCount":30,"perPage":9},"edges":[{"node":{"id":"a63f00ee-52fa-577b-ad98-74cb958c2033","excerpt":"Android Studio 调试反编译文件 序言 ​ 写这篇文章主要记录一次实战反编译调试记录，调试过程中遇到的问题等等 基础 ​ 这次是一个很简单的小 app，没有任何壳什么的，所以前期过程中都很顺利，主要是使用 Android Studio…","frontmatter":{"thumbnail":null,"title":"AndroidStudio反编译调试实战","date":"2020-10-28","tags":["AndroidStudio","AndroidStudio调试","反编译","逆向"],"categories":["调试"],"author":null},"fields":{"slug":"archives/androidstudiodebug.html"}}},{"node":{"id":"2ed80c90-0d37-5662-ac3b-f5b197f3cc66","excerpt":"免费实用录屏软件推荐 OBS Studio 免费并且开源的软件，用于视频录制和实时流。在 Windows，Mac 或 Linux 上快速轻松地下载并开始流式传输。 常见的场景是直播时用 OBS…","frontmatter":{"thumbnail":null,"title":"录屏软件推荐","date":"2020-10-28","tags":["Bandicam","ScreenRecording"],"categories":["神兵利器"],"author":null},"fields":{"slug":"archives/screenrecordingsoftware.html"}}},{"node":{"id":"803eabb2-fccc-5b25-b144-95f37c972070","excerpt":"使用说明 本文方法来源于网上，只做学习使用，请勿用于商业或企业，不要问为什么装 2020，因为官方说运行速度比 2016 的快了几倍，有两个版本：Polyspace R2020b和Polyspace R2020a，至于a和b有啥区别咱也不知道，需要 a 的可以留言。本文用 b…","frontmatter":{"thumbnail":null,"title":"MatLab2020破解安装","date":"2020-09-29","tags":["matlab","matlab破解版","matlab最新版","matlab安装教程"],"categories":["日常"],"author":null},"fields":{"slug":"archives/matlab.html"}}},{"node":{"id":"e743522b-5ca4-5c49-9c6a-9311455b27be","excerpt":"解锁网易云音乐 前言 众所周知，网易云很多歌曲没有版权，无法直接播放，用惯了网易云而又不想装很多音乐软件，这款工具就能解决这个通病。文章转载自 gitee，由meng-chuan的开源项目而来，GitHub 地址，Gitee…","frontmatter":{"thumbnail":null,"title":"解锁网易云音乐灰色歌曲","date":"2020-07-01","tags":["NodeJs"],"categories":["神兵利器"],"author":null},"fields":{"slug":"archives/unlockcloudmusic.html"}}},{"node":{"id":"6b6a7b1a-4d82-5046-ac18-b3778a846178","excerpt":"…","frontmatter":{"thumbnail":null,"title":"高效多开微信","date":"2020-07-01","tags":["bat"],"categories":["代码","日常"],"author":null},"fields":{"slug":"archives/morewechat.html"}}},{"node":{"id":"ad35c6fb-e0c6-50f3-836f-1302c12c01d3","excerpt":"TikTok 加密中的套娃模式 引言 tiktok 相比国内的某音的网页版做的不错，以至于你基本可以将他的网页版当作 APP 来使用，登录也自然是可以的(整体看上去跟 APP…","frontmatter":{"thumbnail":null,"title":"TikTok加密中的套娃模式","date":"2020-06-28","tags":["JavaScript","NodeJs","TikTok"],"categories":["代码","调试"],"author":null},"fields":{"slug":"archives/tiktok-signature.html"}}},{"node":{"id":"7ed0022e-2691-5da9-9d36-be1cc0b7cf4e","excerpt":"使用 acme 为域名生成免费的通配符 SSL 安装acme.sh 生成证书 HTTP 方式 使用的 apache 或 nginx 会自动读取配置来验证域名 没有使用这些服务器软件 需要指定域名, 并指定域名所在的网站根目录. acme.sh…","frontmatter":{"thumbnail":null,"title":"生成免费且支持泛域名的的SSL证书","date":"2020-06-23","tags":["SSL"],"categories":["日常"],"author":null},"fields":{"slug":"archives/acme-free-ssl.html"}}},{"node":{"id":"428df05e-4d3f-5f00-921c-4bf536c10b7b","excerpt":"项目来由 首先感谢fuzui开源的GBlog-wx小程序项目， starstar 用于halo博客，继上次 PR…","frontmatter":{"thumbnail":null,"title":"NodeJS为GBlog-wx小程序增加推送功能","date":"2020-06-08","tags":["NodeJs","MongoDB","Redis"],"categories":["代码"],"author":null},"fields":{"slug":"archives/gblog-wx-push.html"}}},{"node":{"id":"102b9b97-ceab-5416-8449-e5ace371c959","excerpt":"实现思路 上次发过的，通过分享链接来生成短链接，后来微博又下线了这个功能，微博还有好多地方都可以生成，发微博、评论、发私信等等都可以，网上也有通过发微博来实现的，这里我用的是发私信(因为私信接口返回的是 json 数据，可以偷懒，而且速度也要快一点) 项目地址 https…","frontmatter":{"thumbnail":null,"title":"新浪短网址接口源码，并使用PHP模拟登陆来自动更新","date":"2020-05-17","tags":["PHP","新浪短网址","爬虫开发","NodeJs"],"categories":["代码"],"author":null},"fields":{"slug":"archives/php-weibo-login.html"}}}]}},"pageContext":{"limit":9,"skip":9}},"staticQueryHashes":["1535296192"]}