{"componentChunkName":"component---src-templates-index-tsx","path":"/page/12","result":{"data":{"allMarkdownRemark":{"pageInfo":{"currentPage":12,"hasNextPage":false,"hasPreviousPage":true,"itemCount":0,"pageCount":4,"totalCount":30,"perPage":9},"edges":[]}},"pageContext":{"limit":9,"skip":99}},"staticQueryHashes":["1535296192"]}