{"componentChunkName":"component---src-templates-index-tsx","path":"/page/16","result":{"data":{"allMarkdownRemark":{"pageInfo":{"currentPage":16,"hasNextPage":false,"hasPreviousPage":true,"itemCount":0,"pageCount":4,"totalCount":29,"perPage":9},"edges":[]}},"pageContext":{"limit":9,"skip":135}},"staticQueryHashes":["1535296192"]}