{"componentChunkName":"component---src-templates-index-tsx","path":"/page/7","result":{"data":{"allMarkdownRemark":{"pageInfo":{"currentPage":7,"hasNextPage":false,"hasPreviousPage":true,"itemCount":0,"pageCount":4,"totalCount":29,"perPage":9},"edges":[]}},"pageContext":{"limit":9,"skip":54}},"staticQueryHashes":["1535296192"]}