{"componentChunkName":"component---src-templates-index-tsx","path":"/","result":{"data":{"allMarkdownRemark":{"pageInfo":{"currentPage":1,"hasNextPage":true,"hasPreviousPage":false,"itemCount":9,"pageCount":4,"totalCount":28,"perPage":9},"edges":[{"node":{"id":"60b33a09-e4d8-5006-be30-1d4fd15b46ac","excerpt":"沃派飞 Young 一体 导语 上篇文章 写了一个沃派登录端，其实飞 young 之前也搞出来了，但由于我用的是沃派，就先把沃派版本做出来先测试，也当做是学习Go 开发命令行程序，为打通两个校园网做准备。 获得可执行文件 阿里网盘不让分享二进制可执行文件，Windows…","frontmatter":{"thumbnail":"https://ghproxy.com/https://raw.githubusercontent.com/ufec/picGoImg/main/blog/8885de4772b45721003402ea5aca50f2.webp","title":"沃派飞Young一体化登陆器","date":"2021-10-30","tags":["沃派","校园网"],"categories":["代码","日常"],"author":null},"fields":{"slug":"archives/wo-pai-fei-young-yi-ti-hua-deng-lu-qi.html"}}},{"node":{"id":"24dc3bf2-e753-5b91-8995-77a066ce1e24","excerpt":"联通沃派校园网 前言 这两天抽了点时间用 Go 写了个沃派拨号工具，为什么要写这个工具？ 为了解决联通沃派的以下痛点： 用工具拨号联网，不让电脑分享 WiFi…","frontmatter":{"thumbnail":"https://ghproxy.com/https://raw.githubusercontent.com/ufec/picGoImg/main/blog/8885de4772b45721003402ea5aca50f2.webp","title":"联通沃派校园网命令行拨号程序","date":"2021-10-24","tags":["沃派"],"categories":["代码","日常"],"author":null},"fields":{"slug":"archives/lian-tong-wo-pai-xiao-yuan-wang-ming-ling-xing-bo-hao-cheng-xu.html"}}},{"node":{"id":"6a554975-9a04-5535-8486-0ea3c9dab3b4","excerpt":"飞 Young 逆向分析-第三章 由于沃派老是莫名掉线，于是基于之前的文章，把沃派的认证程序撸了出来，耽误了飞 young…","frontmatter":{"thumbnail":"https://ghproxy.com/https://raw.githubusercontent.com/ufec/picGoImg/main/blog/5cbc7afdc3fd99feefbb44e3734fcccc.webp","title":"飞Young逆向分析-第三章","date":"2021-10-10","tags":["AndroidStudio","AndroidStudio调试","反编译","逆向"],"categories":["代码","日常"],"author":null},"fields":{"slug":"archives/fyoung-reverse-third-part.html"}}},{"node":{"id":"6da12d86-75af-59ef-843f-2a6ca08f8c77","excerpt":"飞 Young 逆向分析-第二章 继上篇文章 飞 Young…","frontmatter":{"thumbnail":"https://ghproxy.com/https://raw.githubusercontent.com/ufec/picGoImg/main/blog/5cbc7afdc3fd99feefbb44e3734fcccc.webp","title":"飞Young逆向分析-第二章","date":"2021-10-04","tags":["AndroidStudio","AndroidStudio调试","反编译","逆向"],"categories":["代码","日常"],"author":null},"fields":{"slug":"archives/fyoung-reverse-second-part.html"}}},{"node":{"id":"cbded225-f660-5c84-a8cc-813552e8a597","excerpt":"飞 Young 逆向分析 鉴于飞 young 没有Linux版本，于是打算手撸一个（脚本），从Android版本抓包来看，只需要算出那十五个参数，通过 http…","frontmatter":{"thumbnail":"https://ghproxy.com/https://raw.githubusercontent.com/ufec/picGoImg/main/blog/55d8c8954ec2cbec65d4e25a5da63395.webp","title":"飞Young逆向分析-第一章","date":"2021-10-02","tags":["AndroidStudio调试","反编译","逆向"],"categories":["日常","调试"],"author":null},"fields":{"slug":"archives/fyoung-reverse-first-part.html"}}},{"node":{"id":"6a3cf06d-3d64-59b4-bfb5-3dfaee2a9de7","excerpt":"优学院刷课 前言 优学院刷课项目再 15 个月之前就发布了：GitHub 地址，很久没用自然就会出些问题。也多次收到过邮件问什么时候更新，…","frontmatter":{"thumbnail":"https://ghproxy.com/https://raw.githubusercontent.com/ufec/picGoImg/main/blog/d4a42af87ce9a47283324e934909ef38.webp","title":"优学院刷课","date":"2021-05-08","tags":["Python"],"categories":["代码"],"author":null},"fields":{"slug":"archives/fuck-ulearning.html"}}},{"node":{"id":"35c2d815-2085-5a18-b8b6-a1a2dcbf33cd","excerpt":"稀疏多项式运算 问题背景 稀疏多项式可以抽象成一个线性表，数据域存储指数和系数，指针域链接下一项，直到结束，操纵链表即可实现对多项式的运算！本文记录整个实现的过程，便于复查 开始 数据域和链表节点的定义 LinkList 与 LNode * 本质上等价 ，习惯用 LinkList…","frontmatter":{"thumbnail":"https://ghproxy.com/https://raw.githubusercontent.com/ufec/picGoImg/main/blog/382d7dfefd163f0d4d45c0e434974d22.webp","title":"C语言数据结构-稀疏多项式运算","date":"2021-05-08","tags":["数据结构","C语言","C语言数据结构"],"categories":["数据结构"],"author":null},"fields":{"slug":"archives/data-structure-for-c-sparsepolyno.html"}}},{"node":{"id":"f0bbd45e-b9ff-5f96-855d-21826c68e4b4","excerpt":"Android Studio 调试反编译文件 序言 ​ 写这篇文章主要记录一次实战反编译调试记录，调试过程中遇到的问题等等 基础 ​ 这次是一个很简单的小 app，没有任何壳什么的，所以前期过程中都很顺利，主要是使用 Android Studio…","frontmatter":{"thumbnail":"https://ghproxy.com/https://raw.githubusercontent.com/ufec/picGoImg/main/blog/55d8c8954ec2cbec65d4e25a5da63395.webp","title":"AndroidStudio反编译调试实战","date":"2020-10-28","tags":["AndroidStudio","AndroidStudio调试","反编译","逆向"],"categories":["调试"],"author":null},"fields":{"slug":"archives/androidstudiodebug.html"}}},{"node":{"id":"30d62fa7-2d91-5ab5-bc26-ac1ea7dc7f0b","excerpt":"免费实用录屏软件推荐 OBS Studio 免费并且开源的软件，用于视频录制和实时流。在 Windows，Mac 或 Linux 上快速轻松地下载并开始流式传输。 常见的场景是直播时用 OBS…","frontmatter":{"thumbnail":"https://ghproxy.com/https://raw.githubusercontent.com/ufec/picGoImg/main/blog/4e188d1e64b5a2de0e0e80f970ec768b.webp","title":"录屏软件推荐","date":"2020-10-28","tags":["Bandicam","ScreenRecording"],"categories":["神兵利器"],"author":null},"fields":{"slug":"archives/screenrecordingsoftware.html"}}}]}},"pageContext":{"limit":9,"skip":0}},"staticQueryHashes":["1535296192"]}