{"componentChunkName":"component---src-templates-index-tsx","path":"/page/11","result":{"data":{"allMarkdownRemark":{"pageInfo":{"currentPage":11,"hasNextPage":false,"hasPreviousPage":true,"itemCount":0,"pageCount":4,"totalCount":29,"perPage":9},"edges":[]}},"pageContext":{"limit":9,"skip":90}},"staticQueryHashes":["1535296192"]}