{"componentChunkName":"component---src-templates-index-tsx","path":"/page/27","result":{"data":{"allMarkdownRemark":{"pageInfo":{"currentPage":27,"hasNextPage":false,"hasPreviousPage":true,"itemCount":0,"pageCount":4,"totalCount":28,"perPage":9},"edges":[]}},"pageContext":{"limit":9,"skip":234}},"staticQueryHashes":["1535296192"]}