{"componentChunkName":"component---src-templates-index-tsx","path":"/page/9","result":{"data":{"allMarkdownRemark":{"pageInfo":{"currentPage":9,"hasNextPage":false,"hasPreviousPage":true,"itemCount":0,"pageCount":4,"totalCount":28,"perPage":9},"edges":[]}},"pageContext":{"limit":9,"skip":72}},"staticQueryHashes":["1535296192"]}