{"componentChunkName":"component---src-templates-index-tsx","path":"/page/8","result":{"data":{"allMarkdownRemark":{"pageInfo":{"currentPage":8,"hasNextPage":false,"hasPreviousPage":true,"itemCount":0,"pageCount":4,"totalCount":28,"perPage":9},"edges":[]}},"pageContext":{"limit":9,"skip":63}},"staticQueryHashes":["1535296192"]}