{"componentChunkName":"component---src-templates-index-tsx","path":"/page/3","result":{"data":{"allMarkdownRemark":{"pageInfo":{"currentPage":3,"hasNextPage":true,"hasPreviousPage":true,"itemCount":9,"pageCount":4,"totalCount":30,"perPage":9},"edges":[{"node":{"id":"aa82ebd8-2f57-5072-8766-344ecf0e8acd","excerpt":"准备工作 姜饼短视频是爱奇艺旗下的短视频平台，一位朋友让我看看，就来分析试试\n老规矩：找接口，看参数，找方法\n不过他这个页面就两个 js，一个 md5 很明显了，一个 index 就是我们要找的，复制下来，直接开Fiddler调试。 开始操作 分析发现，他将 console…","frontmatter":{"thumbnail":null,"title":"姜饼短视频无水印分析","date":"2020-05-16","tags":["Fiddler","JavaScript"],"categories":["代码"],"author":null},"fields":{"slug":"archives/jiangbing.html"}}},{"node":{"id":"36dc2b33-f630-5fe0-8c01-f2786ee34725","excerpt":"准备工作 找到接口，看必要参数\n4.png\n断点调试，找出生成 sign 的方法所在的 js 文件，使用Fiddler替换文件(之前的文章已经讲过，不再赘述)，这里指出一点，使用此方法会遇到跨域的问题(用了本地转发)，不过没关系，Fiddler依旧可以解决。具体方法如下：…","frontmatter":{"thumbnail":null,"title":"短酷无水印视频接口分析","date":"2020-05-15","tags":["Fiddler","JavaScript"],"categories":["代码","调试"],"author":null},"fields":{"slug":"archives/duankusign.html"}}},{"node":{"id":"5aafbf08-a4ec-56b8-9247-06f618476a03","excerpt":"Promise 简介 它允许您将处理程序与异步操作的最终成功值或失败原因相关联。这使异步方法可以像同步方法一样返回值：异步方法返回立即提供最终值的承诺，而不是立即返回最终值。 为什么用 Promise 因为 JavaScript 是单线程的，一些 I/O…","frontmatter":{"thumbnail":null,"title":"你的一句承诺，就能避免很多错","date":"2020-05-11","tags":["NodeJs","Promise"],"categories":["代码"],"author":null},"fields":{"slug":"archives/promise.html"}}},{"node":{"id":"dd3be854-c0fd-5ad0-ba9b-97523310b922","excerpt":"记录 Bug Pyppeteer 0.0.2 这个一般你使用清华源就会自动装这个，踩过很多坑，这东西 Bug 的确多 问题一： 造成原因：网页打开速度慢，或者用了代理啥的，速度慢，没设置超时时间(当然也有其他原因，遇到在更新)\n解决方案： Pyppeteer 0.2.…","frontmatter":{"thumbnail":null,"title":"Pyppeteer常见问题整理","date":"2020-05-09","tags":["Python","pyppeteer"],"categories":["Bug"],"author":null},"fields":{"slug":"archives/pyppeteererrors.html"}}},{"node":{"id":"bf599889-972d-561e-ac56-39756498bf73","excerpt":"软件介绍 aria2是用于下载文件的实用程序,主要用 C ++编写。aria2 是一个轻量级的多协议和多源命令行 下载实用程序。aria2 可以通过内置的 JSON-RPC 和 XML-RPC 接口进行操作。支持的协议是 HTTP（S），FTP，SFTP，BitTorrent…","frontmatter":{"thumbnail":null,"title":"神兵利器之Aria2，加速你的下载","date":"2020-04-27","tags":["Aria2"],"categories":["神兵利器"],"author":null},"fields":{"slug":"archives/aria2.html"}}},{"node":{"id":"acd189f3-d885-5ec0-81c2-a96a2875f3c7","excerpt":"项目来由 在金山云多人协作里，批量下载所有文档这不应该是个刚需？又被万恶的会员制垄断。\n3333.png\n很烦，系统也没做验证，只验证 cookie，就能通过接口获取下载地址，一个个下载就显得很 low，于是就有 Python…","frontmatter":{"thumbnail":null,"title":"金山云文档批量下载","date":"2020-04-24","tags":["Python"],"categories":["代码"],"author":null},"fields":{"slug":"archives/7.html"}}},{"node":{"id":"964373ad-0ab2-5bfc-8247-b0087dbf2f12","excerpt":"Fiddler 简介   Fiddler是一款 Web 调试代理工具，用于记录计算机和 Internet 之间的所有 HTTP（S）通信。检查流量，设置断点，并伪造请求/响应。 实现方法   利用 Fiddler 替换原网站 js…","frontmatter":{"thumbnail":null,"title":"Fiddler之网易云音乐加密参数","date":"2020-04-24","tags":["Fiddler","JavaScript"],"categories":["代码","调试"],"author":null},"fields":{"slug":"archives/6.html"}}},{"node":{"id":"50c1373b-ca8d-5dcf-bafd-e38b712232ec","excerpt":"开始安装 在自带的 MicrosoftStore 搜索 Linux，选择自己想要的系统，\nstore.png\n这里我选的 Ubuntu，直接搜 Ubuntu 也可，安装完成后启动，如果有如下提示\ninstall.png…","frontmatter":{"thumbnail":null,"title":"安装WSL(Windows Linux)","date":"2020-04-18","tags":["WSL"],"categories":["日常"],"author":null},"fields":{"slug":"archives/5.html"}}},{"node":{"id":"d868b531-b82c-5ed9-bc6f-ec336b90e6df","excerpt":"实现缘由 学校要求每天要提交个什么健康信息收集表，交就交，每天数据没啥变化，这腾讯文档还不能保存选择(就算状况有变，个人基本信息不会变，非得要重新填，小程序里历史记录点一下页面就会重新置顶，又得拉下去填，真的烦)，于是这个小项目就诞生了 实现思路 Python…","frontmatter":{"thumbnail":null,"title":"论如何破解腾讯滑块验证码","date":"2020-04-10","tags":["Python","爬虫开发"],"categories":["代码"],"author":null},"fields":{"slug":"archives/4.html"}}}]}},"pageContext":{"limit":9,"skip":18}},"staticQueryHashes":["1535296192"]}