{"componentChunkName":"component---src-templates-index-tsx","path":"/page/4","result":{"data":{"allMarkdownRemark":{"pageInfo":{"currentPage":4,"hasNextPage":false,"hasPreviousPage":true,"itemCount":3,"pageCount":4,"totalCount":30,"perPage":9},"edges":[{"node":{"id":"68cefd9e-5a80-599c-ad42-9819c07c0f2f","excerpt":"写在前面 写这个的起因是源于帮老师收一次作业，要求拍照，于是就收到的各式各样的格式，图片在一个文档中还能直接取出(将 word…","frontmatter":{"thumbnail":null,"title":"Python批量提取多目录下多个word文档中的图片","date":"2020-03-27","tags":["Python"],"categories":["代码"],"author":null},"fields":{"slug":"archives/3.html"}}},{"node":{"id":"43114354-4800-57b7-a9a1-b1458bb54c2b","excerpt":"申请流程 前往JetBrains 学生产品申请地址，可选用学校邮箱或学生证申请，GitHub 认证过也可以，填写完整信息，提交。\napply.png\n使用学生证认证需要等待一周时间，过程中可以使用申请邮箱先去注册 JetBrains…","frontmatter":{"thumbnail":null,"title":"JetBrains学生产品申请","date":"2020-03-26","tags":["JetBrains"],"categories":["日常"],"author":null},"fields":{"slug":"archives/2.html"}}},{"node":{"id":"98022750-259f-5735-9cc0-4a50ae1ea085","excerpt":"写在前面 写这个短链接接口主要是用于我的短链接程序ThinkPHP5 短链接程序，也看到好多人在找如何生成新浪短网址(目前新浪官方已经停止了短链接生成接口)\n1.png…","frontmatter":{"thumbnail":null,"title":"短链接接口源码(新浪短链接、腾讯短链接、百度短链接)","date":"2020-03-25","tags":["PHP","新浪短网址"],"categories":["代码"],"author":null},"fields":{"slug":"archives/1.html"}}}]}},"pageContext":{"limit":9,"skip":27}},"staticQueryHashes":["1535296192"]}