{"componentChunkName":"component---src-templates-index-tsx","path":"/page/20","result":{"data":{"allMarkdownRemark":{"pageInfo":{"currentPage":20,"hasNextPage":false,"hasPreviousPage":true,"itemCount":0,"pageCount":4,"totalCount":30,"perPage":9},"edges":[]}},"pageContext":{"limit":9,"skip":171}},"staticQueryHashes":["1535296192"]}