{"componentChunkName":"component---src-templates-index-tsx","path":"/page/24","result":{"data":{"allMarkdownRemark":{"pageInfo":{"currentPage":24,"hasNextPage":false,"hasPreviousPage":true,"itemCount":0,"pageCount":4,"totalCount":30,"perPage":9},"edges":[]}},"pageContext":{"limit":9,"skip":207}},"staticQueryHashes":["1535296192"]}